INDEX VERSION 1.131+/home/shubh/eclipse-workspace/.metadata/.plugins/org.eclipse.jdt.core
3325787919.index
3698328557.index
2365012970.index
1736685558.index
752878113.index
3721176429.index
813276925.index
3518093325.index
3465218308.index
2823919868.index
2164984194.index
2911225282.index
1398340887.index
43244197.index
795107119.index
2850153846.index
2885859288.index
2107983472.index
4095500042.index
1718271870.index
3816241678.index
1802808128.index
377349448.index
1975086047.index
867215167.index
420042603.index
3669307337.index
53605148.index
3796480603.index
2191324218.index
1232375081.index
2261624623.index
2627267521.index
3909465464.index
2088059068.index
1051892575.index
2904012982.index
416471447.index
536820834.index
3989795674.index
464657106.index
3845984237.index
3433435757.index
3844831497.index
2093002180.index
3694938018.index
3997901167.index
130271167.index
1603102663.index
861841997.index
109061931.index
1383620545.index
874935679.index
2233118589.index
1999629755.index
4148138786.index
1701553557.index
375749512.index
1737023466.index
1647884016.index
2178170957.index
2641139329.index
3414171311.index
30313501.index
316986905.index
3276518678.index
2961765026.index
398367071.index
2510466091.index
801892055.index
848537773.index
1263493329.index
335430826.index
363686055.index
2653656769.index
2560785994.index
1804281251.index
4220372876.index
31936811.index
3820822255.index
3394778100.index
