/home/shubh/eclipse-workspace/ShoppingCart-2/src/main/java/com/example/demo/ShoppingCart2Application.java
/home/shubh/eclipse-workspace/ShoppingCart-2/src/main/java/com/example/demo/Customers.java
/home/shubh/eclipse-workspace/ShoppingCart-2/src/main/java/com/example/demo/FormController.java
/home/shubh/eclipse-workspace/ShoppingCart-2/src/main/java/com/example/demo/CustomerRepo.java
