com/example/demo/model/Customer.class
com/example/demo/controller/CustomerController.class
com/example/demo/Demospring123Application.class
com/example/demo/dao/CustomerDAO.class
com/example/demo/repository/CustomerRepository.class
